1 1186.49
2 2868.81
3 5401.54
4 7491.5
5 6808.39
6 11669.1
7 13866.4
8 10998.9
9 19571.6
10 17777
11 22270.4
12 23275.6
13 23113.6
14 25077.5
15 28622.3
16 31636.9
17 36480.1
18 41783.3
19 44842
20 45686.4
21 46123.6
22 48736.5
23 54164.5
24 54448.6
25 58070.9
